{
  "project_info": {
    "project_number": "92913607422",
    "project_id": "matco-net",
    "storage_bucket": "matco-net.appspot.com"
  },
  "client": [
    {
      "client_info": {
        "mobilesdk_app_id": "1:92913607422:android:9493a176101e15d9f9bbaf",
        "android_client_info": {
          "package_name": "com.example.matcon_net_try"
        }
      },
      "oauth_client": [
        {
          "client_id": "92913607422-bpe7csl68cogn7eod5e6k17cqi39ter0.apps.googleusercontent.com",
          "client_type": 3
        }
      ],
      "api_key": [
        {
          "current_key": "AIzaSyBXgQ9N0szRFcLKo6Ij3ASc66goxDc7lo8"
        }
      ],
      "services": {
        "appinvite_service": {
          "other_platform_oauth_client": [
            {
              "client_id": "92913607422-bpe7csl68cogn7eod5e6k17cqi39ter0.apps.googleusercontent.com",
              "client_type": 3
            }
          ]
        }
      }
    }
  ],
  "configuration_version": "1"
}